﻿{
  "profiles": {
    "Otus.Teaching.PromoCodeFactory.ClearPromocodesCountTask": {
      "commandName": "Project",
      "environmentVariables": {
        "DOTNET_ENVIRONMENT": "Development"
      }
    }
  }
}
